<?xml version="1.0" encoding="UTF-8" standalone="no"?>
<!DOCTYPE svg  PUBLIC '-//W3C//DTD SVG 1.1//EN'  'http://www.w3.org/Graphics/SVG/1.1/DTD/svg11.dtd'>
<svg id="Layer_1" xmlns="http://www.w3.org/2000/svg" xml:space="preserve" height="401px" viewBox="312.809 0 401 401" width="401px" version="1.1" y="0px" x="0px" xmlns:xlink="http://www.w3.org/1999/xlink" enable-background="new 312.809 0 401 401">
<g transform="matrix(1.223 0 0 1.223 -467.5 -843.44)">
	<rect y="653.07" x="601.45" height="401" width="401" fill="#E4E6E7"/>
	<path d="m802.38 908.08c-84.515 0-153.52 48.185-157.38 108.62h314.79c-3.87-60.44-72.9-108.62-157.41-108.62z" fill="#AEB4B7"/>
	<path d="m881.37 818.86c0 46.746-35.106 84.641-78.41 84.641s-78.41-37.895-78.41-84.641 35.106-84.641 78.41-84.641c43.31 0 78.41 37.9 78.41 84.64z" fill="#AEB4B7"/>
	<rect y="729.06" x="735.89" height="281.41" width="206.99" fill="none"/>
	<text font-size="218" font-family="&apos;BigJohn&apos;" transform="matrix(.8176 0 0 .8176 754.76 888.4)" fill="#E4E6E7">?</text>
</g>
</svg>
